[
  {"title":"Begin","href":"begin","thumbs":[
    {"src":"http://album.laiyegon.com:9088/content/resized/m/china/old-photos/PhotoScan.jpg","title":"","caption":""},
    {"src":"http://album.laiyegon.com:9088/content/resized/m/china/old-photos/photo-17a.jpg","title":"","caption":""},
    {"src":"http://album.laiyegon.com:9088/content/resized/m/china/old-photos/photo-18c.jpg","title":"","caption":""},
    {"src":"http://album.laiyegon.com:9088/content/resized/m/china/old-photos/photo-3b.jpg","title":"","caption":""}
  ]},

  {"title":"Travel","href":"travel","thumbs":[
    {"src":"http://album.laiyegon.com:9088/content/resized/m/1966/IMG_0025.JPG","title":"","caption":""},
    {"src":"http://album.laiyegon.com:9088/content/resized/m/1966/PhotoScan-a.jpg","title":"","caption":""},
    {"src":"http://album.laiyegon.com:9088/content/resized/m/1966/photo-18d.jpg","title":"","caption":""},
    {"src":"http://album.laiyegon.com:9088/content/resized/m/1950/PhotoScan%20(22)%20a.jpg","title":"","caption":""},
    {"src":"http://album.laiyegon.com:9088/content/resized/m/1956/photo-14c.jpg","title":"","caption":""},
    {"src":"http://album.laiyegon.com:9088/content/resized/m/1968/photo-15c.jpg","title":"","caption":""},
    {"src":"http://album.laiyegon.com:9088/content/resized/m/1968/photo-15d.jpg","title":"","caption":""},
    {"src":"http://album.laiyegon.com:9088/content/resized/m/1969/PhotoScan%20(216).jpg","title":"","caption":""},
    {"src":"http://album.laiyegon.com:9088/content/resized/m/1969/PhotoScan%20(212).jpg","title":"","caption":""},
    {"src":"http://album.laiyegon.com:9088/content/resized/m/1969/photo-10c.jpg","title":"","caption":""},
    {"src":"http://album.laiyegon.com:9088/content/resized/m/1969/PhotoScan%20(225).jpg","title":"","caption":""},
    {"src":"http://album.laiyegon.com:9088/content/resized/m/1971/boston/PhotoScan%20(230).jpg","title":"","caption":""},
    {"src":"http://album.laiyegon.com:9088/content/resized/m/1971/boston/PhotoScan%20(229).jpg","title":"","caption":""},
    {"src":"http://album.laiyegon.com:9088/content/resized/m/1971/boston/PhotoScan%20(227).jpg","title":"","caption":""},
    {"src":"http://album.laiyegon.com:9088/content/resized/m/1971/ontario/PhotoScan%20(233).jpg","title":"","caption":""},
    {"src":"http://album.laiyegon.com:9088/content/resized/m/1971/ontario/PhotoScan%20(239).jpg","title":"","caption":""},
    {"src":"http://album.laiyegon.com:9088/content/resized/m/1971/ontario/PhotoScan%20(240).jpg","title":"","caption":""},
    {"src":"http://album.laiyegon.com:9088/content/resized/m/1973/PhotoScan%20(251).jpg","title":"","caption":""},
    {"src":"http://album.laiyegon.com:9088/content/resized/m/1973/PhotoScan%20(262).jpg","title":"","caption":""},
    {"src":"http://album.laiyegon.com:9088/content/resized/m/1973/PhotoScan%20(266).jpg","title":"","caption":""},
    {"src":"http://album.laiyegon.com:9088/content/resized/m/1974/PhotoScan%20(287).jpg","title":"","caption":""},
    {"src":"http://album.laiyegon.com:9088/content/resized/m/1974/PhotoScan%20(91)-dad.jpg","title":"","caption":""},
    {"src":"http://album.laiyegon.com:9088/content/resized/m/1977/stratford/PhotoScan%20(272).jpg","title":"","caption":""},
    {"src":"http://album.laiyegon.com:9088/content/resized/m/1977/stratford/PhotoScan%20(277).jpg","title":"","caption":""},
    {"src":"http://album.laiyegon.com:9088/content/resized/m/1977/stratford/PhotoScan%20(285).jpg","title":"","caption":""},
    {"src":"http://album.laiyegon.com:9088/content/resized/m/1977/stratford/PhotoScan%20(283).jpg","title":"","caption":""},
    {"src":"http://album.laiyegon.com:9088/content/resized/m/1977/stratford/PhotoScan%20(280).jpg","title":"","caption":""},
    {"src":"http://album.laiyegon.com:9088/content/resized/m/1974/PhotoScan%20(287).jpg","title":"","caption":""}
  ]},

  {"title":"Love","href":"love","thumbs":[
    {"src":"http://album.laiyegon.com:9088/content/resized/m/1980/PhotoScan%20(204).jpg","title":"","caption":""},
    {"src":"http://album.laiyegon.com:9088/content/resized/m/1979/PhotoScan%20(299).jpg","title":"","caption":""},
    {"src":"http://album.laiyegon.com:9088/content/resized/m/1979/PhotoScan%20(300).jpg","title":"","caption":""},
    {"src":"http://album.laiyegon.com:9088/content/resized/m/1979/PhotoScan%20(303).jpg","title":"","caption":""},
    {"src":"http://album.laiyegon.com:9088/content/resized/m/1979/PhotoScan%20(315).jpg","title":"","caption":""},
    {"src":"http://album.laiyegon.com:9088/content/resized/m/1979/03-18-married/PhotoScan%20(320).jpg","title":"","caption":""}
  ]},

  {"title":"Family","href":"family","thumbs":[
    {"src":"http://album.laiyegon.com:9088/content/resized/m/1981/PhotoScan%20(100b)-john-yawning.jpg","title":"","caption":""},
    {"src":"http://album.laiyegon.com:9088/content/resized/m/1981/PhotoScan%20(327).jpg","title":"","caption":""},
    {"src":"http://album.laiyegon.com:9088/content/resized/m/1982/PhotoScan%20(358).jpg","title":"","caption":""},
    {"src":"http://album.laiyegon.com:9088/content/resized/m/1982/PhotoScan%20(360).jpg","title":"","caption":""},
    {"src":"http://album.laiyegon.com:9088/content/resized/m/1982/PhotoScan%20(364).jpg","title":"","caption":""},
    {"src":"http://album.laiyegon.com:9088/content/resized/m/1983/home/PhotoScan%20(372).jpg","title":"","caption":""},
    {"src":"http://album.laiyegon.com:9088/content/resized/m/1983/home/PhotoScan%20(371).jpg","title":"","caption":""},
    {"src":"http://album.laiyegon.com:9088/content/resized/m/1984/home/PhotoScan%20(377).jpg","title":"","caption":""},
    {"src":"http://album.laiyegon.com:9088/content/resized/m/1986/niagara-falls/PhotoScan%20(194).jpg","title":"","caption":""},
    {"src":"http://album.laiyegon.com:9088/content/resized/m/1988/PhotoScan%20(441).jpg","title":"","caption":""},
    {"src":"http://album.laiyegon.com:9088/content/resized/m/1989/center-island/PhotoScan%20(127).jpg","title":"","caption":""}
  ]},

  {"title":"Restaurant","href":"restaurant","thumbs":[
    {"src":"http://album.laiyegon.com:9088/content/resized/m/1990/BBQ%20store%20Mom%20and%20Dad.jpeg","title":"","caption":""},
    {"src":"http://album.laiyegon.com:9088/content/resized/m/1998/PhotoScan%20(105).jpg","title":"","caption":""},
    {"src":"http://album.laiyegon.com:9088/content/resized/m/1998/PhotoScan%20(107).jpg","title":"","caption":""},
    {"src":"http://album.laiyegon.com:9088/content/resized/m/1998/PhotoScan%20(109).jpg","title":"","caption":""},
    {"src":"http://album.laiyegon.com:9088/content/resized/m/1998/PhotoScan%20(109a).jpg","title":"","caption":""},
    {"src":"http://album.laiyegon.com:9088/content/resized/m/2003/david-birthday/PhotoScan%20(434).jpg","title":"","caption":""},
    {"src":"http://album.laiyegon.com:9088/content/resized/m/2003/david-birthday/PhotoScan%20(435).jpg","title":"","caption":""},
    {"src":"http://album.laiyegon.com:9088/content/resized/m/2006/PhotoScan%20(439).jpg","title":"","caption":""},
    {"src":"http://album.laiyegon.com:9088/content/resized/m/2006/siumay/PhotoScan%20(149).jpg","title":"","caption":""},
    {"src":"http://album.laiyegon.com:9088/content/resized/m/2006/siumay/PhotoScan%20(180).jpg","title":"","caption":""},
    {"src":"http://album.laiyegon.com:9088/content/resized/m/2006/uncle8/PhotoScan%20(167).jpg","title":"","caption":""}
  ]},

  {"title":"Retire","href":"retire","thumbs":[
    {"src":"http://album.laiyegon.com:9088/content/resized/m/2013/2013-stratford/IMG_3499.JPG","title":"","caption":""},
    {"src":"http://album.laiyegon.com:9088/content/resized/m/2008/stratford/PhotoScan%20(428).jpg","title":"","caption":""},
    {"src":"http://album.laiyegon.com:9088/content/resized/m/2008/stratford/PhotoScan%20(430).jpg","title":"","caption":""},
    {"src":"http://album.laiyegon.com:9088/content/resized/m/2009/thanksgiving/DSC_0413.JPG","title":"","caption":""},
    {"src":"http://album.laiyegon.com:9088/content/resized/m/2009/thanksgiving/DSC_0418.JPG","title":"","caption":""},
    {"src":"http://album.laiyegon.com:9088/content/resized/m/2012/2012-stratford/DSC_0267.JPG","title":"","caption":""},
    {"src":"http://album.laiyegon.com:9088/content/resized/m/2012/2012-stratford/DSC_0332.JPG","title":"","caption":""},
    {"src":"http://album.laiyegon.com:9088/content/resized/m/2012/2012-stratford/DSC_0440.JPG","title":"","caption":""},
    {"src":"http://album.laiyegon.com:9088/content/resized/m/2012/2012-wedding/2012-07-08/DSCN1091.JPG","title":"","caption":""},
    {"src":"http://album.laiyegon.com:9088/content/resized/m/2012/2012-wedding-2/IMG_1343.JPG","title":"","caption":""},
    {"src":"http://album.laiyegon.com:9088/content/resized/m/2013/2013-home/20131226_001324.jpg","title":"","caption":""},
    {"src":"http://album.laiyegon.com:9088/content/resized/m/2014/2014-kinscarden/DSC_0086.JPG","title":"","caption":""},
    {"src":"http://album.laiyegon.com:9088/content/resized/m/2014/2014-kinscarden/DSC_0113.JPG","title":"","caption":""},
    {"src":"http://album.laiyegon.com:9088/content/resized/m/2014/2014-kinscarden/DSC_0154.JPG","title":"","caption":""},
    {"src":"http://album.laiyegon.com:9088/content/resized/m/2015/2015-home-2/IMG_1876.JPG","title":"","caption":""},
    {"src":"http://album.laiyegon.com:9088/content/resized/m/2017/2017-home/IMG_20170519_191316.jpg","title":"","caption":""},
    {"src":"http://album.laiyegon.com:9088/content/resized/m/2017/2017-home/IMG_20170522_171159.jpg","title":"","caption":""},
    {"src":"http://album.laiyegon.com:9088/content/resized/m/2017/2017-home/IMG_20170520_111221.jpg","title":"","caption":""},
    {"src":"http://album.laiyegon.com:9088/content/resized/m/2018/2018-home/IMG_20180215_213756.jpg","title":"","caption":""},
    {"src":"http://album.laiyegon.com:9088/content/resized/m/2018/2018-home-2/IMG_1235.JPG","title":"","caption":""},
    {"src":"http://album.laiyegon.com:9088/content/resized/m/2019/2019-home-2/IMG_1261.JPG","title":"","caption":""},
    {"src":"http://album.laiyegon.com:9088/content/resized/m/2020/2020-misc/IMG_20190725_184713.jpg","title":"","caption":""},
    {"src":"http://album.laiyegon.com:9088/content/resized/m/2020/2020-misc/IMG_20190725_190510.jpg","title":"","caption":""},
    {"src":"http://album.laiyegon.com:9088/content/resized/m/2020/2020-misc/IMG_20190725_191519.jpg","title":"","caption":""},
    {"src":"http://album.laiyegon.com:9088/content/resized/m/2020/2020-misc/IMG_20200209_173702.jpg","title":"","caption":""},
    {"src":"http://album.laiyegon.com:9088/content/resized/m/food/IMG_20171120_183545.jpg","title":"","caption":""}
  ]}
]
